%YAML 1.1
%TAG !u! tag:unity3d.com,2011:
--- !u!114 &11400000
MonoBehaviour:
  m_ObjectHideFlags: 0
  m_PrefabParentObject: {fileID: 0}
  m_PrefabInternal: {fileID: 0}
  m_GameObject: {fileID: 0}
  m_Enabled: 1
  m_EditorHideFlags: 0
  m_Script: {fileID: 11500000, guid: 2d1537428297fdd4094f078e5ca42dcd, type: 3}
  m_Name: BaseConfig
  m_EditorClassIdentifier: 
  m_storageMgrConfig:
    m_storageFileName: GameSaveData.xml
  m_memoryMgrConfig:
    m_activeAutoRecolect: 1
    m_maxFrameRateToRecolect: 0.017
    m_timeSiceLastGarbage: 10
    m_recollectUnityAssets: 0
  m_inputMgrConfig:
    m_buttonIdToPointAndClick: 0
    m_pointAndClickActive: 1
